…
To find the distribution of a few solutions, you can generate a list of solutions using `phr_solution_list()`.

``` r
phr_run(
  phr_solution_list(pH = 5:8, temp = 12:25),
  phr_selected_output(pH = TRUE, temp = TRUE, activities = c("OH-", "H+", "O2"))
)
#> <phr_run_output>
#> PHREEQC run with 1 selected output(s)
#> as_tibble():
#> # A tibble: 56 x 13
#>    selected_output   sim state   soln dist_x  time  step    pH    pe
#>    <chr>           <int> <chr>  <int>  <dbl> <dbl> <int> <dbl> <dbl>
#>  1 n1                  1 i_soln     1     NA    NA    NA  5.00     0
#>  2 n1                  1 i_soln     2     NA    NA    NA  6.00     0
#>  3 n1                  1 i_soln     3     NA    NA    NA  7.00     0
#>  4 n1                  1 i_soln     4     NA    NA    NA  8.00     0
#>  5 n1                  1 i_soln     5     NA    NA    NA  5.00     0
#>  6 n1                  1 i_soln     6     NA    NA    NA  6.00     0
#>  7 n1                  1 i_soln     7     NA    NA    NA  7.00     0
#>  8 n1                  1 i_soln     8     NA    NA    NA  8.00     0
#>  9 n1                  1 i_soln     9     NA    NA    NA  5.00     0
#> 10 n1                  1 i_soln    10     NA    NA    NA  6.00     0
#> # ... with 46 more rows, and 4 more variables: `temp(C)` <dbl>,
#> #   `la_OH-` <dbl>, `la_H+` <dbl>, la_O2 <dbl>
```
…
``` r
result <- phr_run(
  phr_solution_list(pH = 0:14, pe = -14:22, Hg = 0.1),
  phr_selected_output(
    activities = c("Hg", "Hg2+2", "Hg(OH)2", "Hg(OH)2", "HgOH+", "Hg(OH)3-")
  ),
  db = "minteq"
)

result
#> <phr_run_output>
#> PHREEQC run with 1 selected output(s)
#> as_tibble():
#> # A tibble: 300 x 14
#>    selected_output   sim state   soln dist_x  time  step    pH    pe la_Hg
#>    <chr>           <int> <chr>  <int>  <dbl> <dbl> <int> <dbl> <dbl> <dbl>
#>  1 n1                  1 i_soln     1     NA    NA    NA  14.0 -13.0 -3.92
#>  2 n1                  1 i_soln     2     NA    NA    NA  13.0 -12.0 -3.99
#>  3 n1                  1 i_soln     3     NA    NA    NA  14.0 -12.0 -3.92
#>  4 n1                  1 i_soln     4     NA    NA    NA  12.0 -11.0 -4.00
#>  5 n1                  1 i_soln     5     NA    NA    NA  13.0 -11.0 -3.99
#>  6 n1                  1 i_soln     6     NA    NA    NA  14.0 -11.0 -3.92
#>  7 n1                  1 i_soln     7     NA    NA    NA  11.0 -10.0 -4.00
#>  8 n1                  1 i_soln     8     NA    NA    NA  12.0 -10.0 -4.00
#>  9 n1                  1 i_soln     9     NA    NA    NA  13.0 -10.0 -3.99
#> 10 n1                  1 i_soln    10     NA    NA    NA  14.0 -10.0 -3.92
#> # ... with 290 more rows, and 4 more variables: `la_Hg2+2` <dbl>,
#> #   `la_Hg(OH)2` <dbl>, `la_HgOH+` <dbl>, `la_Hg(OH)3-` <dbl>
```
…
